{
  "information": [
    {
      "name": "Diesel Rasp",
      "description": "Case Style: Analogue watch, has a circular case and a stainless steel back.\nFeatures: A screw to adjust time.\nWater-Resistant up to 100 m.",
      "image": "http://192.168.43.1:9632/contentThumbnail/diesel_rasp",
      "id": "101",
      "crust": "MODEL NO: DZ1807",
      "veg": false,
      "sizes": [
        {
          "size":"S",
          "max_quantity":5,
          "price":10495
        }
      ]
    },
    {
      "name": "GUCCI Gucci EDT-90 ml",
      "description": "Medium Perfume (lasts for 3-4 hours).\nTop notes of cardamom, citruses & caviar\nHeart notes of geranium and sea notes\nSIZE & FIT\n100 ml",
      "image": "http://192.168.43.1:9632/contentThumbnail/Gucci_EDT",
      "id": "102",
      "crust": "GUCCI Gucci EDT - 90 ml  (For Men)",
      "veg": true,
      "sizes": [
        {
          "size":"S",
          "max_quantity":5,
          "price":3757
        }
      ]
    },
    {
      "name": "JBL T250SI Headphone",
      "description": "Black over-the-ear headphones\nJBL Pure Bass Sound\nOne-Button universal remote with microphone\nTangle-free flay cable",
      "image": "http://192.168.43.1:9632/contentThumbnail/jbl_t250si",
      "id": "103",
      "crust": "JBL T250SI Headphone  (Black, On the Ear)",
      "veg": true,
      "sizes": [
        {
          "size":"S",
          "max_quantity":5,
          "price":899
        }
      ]
    },
    {
      "name": "Yellow Chimes Metal Bracelet",
      "description": "Gunmetal-toned bracelet with multiple\ncircular details\nSecured with a foldover clasp\nSIZE & FIT\nMaximum length: 20 cm\nMATERIAL: Metal",
      "image": "http://192.168.43.1:9632/contentThumbnail/Yellow_Chimes_Metal_Bracelet",
      "id": "104",
      "crust": "Yellow Chimes Metal Bracelet",
      "veg": true,
      "sizes": [
        {
          "size":"S",
          "max_quantity":5,
          "price":289
        }
      ]
    }
  ]
}