<?xml version="1.0" encoding="utf-8"?>
<!-- Generator: Adobe Illustrator 22.0.1, SVG Export Plug-In . SVG Version: 6.00 Build 0)  -->
<svg version="1.1" id="Isolation_Mode" xmlns="http://www.w3.org/2000/svg" xmlns:xlink="http://www.w3.org/1999/xlink" x="0px"
	 y="0px" viewBox="0 0 100 28" style="enable-background:new 0 0 100 28;" xml:space="preserve">
<style type="text/css">
	.st0{fill:#FFFFFF;}
</style>
<g>
	<g>
		<polygon class="st0" points="10.6,15.5 6.9,13.3 6.9,17.6 		"/>
		<polygon class="st0" points="6.6,17.6 6.6,13.3 2.9,15.5 		"/>
		<polygon class="st0" points="22.9,13.3 19.2,15.5 22.9,17.6 		"/>
		<polygon class="st0" points="10.7,15.7 7,17.8 10.7,20 		"/>
		<polygon class="st0" points="10.7,15.3 10.7,11 7,13.1 		"/>
		<polygon class="st0" points="27,15.3 27,11 23.3,13.1 		"/>
		<polygon class="st0" points="23.2,13.3 23.2,17.6 26.9,15.5 		"/>
		<polygon class="st0" points="19.2,10.8 22.9,12.9 22.9,8.6 		"/>
		<polygon class="st0" points="19.1,15.7 19.1,20 22.8,17.8 		"/>
		<polygon class="st0" points="19.1,15.3 22.8,13.1 19.1,11 		"/>
		<polygon class="st0" points="14.7,17.8 10.9,15.7 10.9,20 		"/>
		<polygon class="st0" points="10.9,15.3 14.7,13.1 10.9,11 		"/>
		<polygon class="st0" points="18.9,15.7 15.1,17.8 18.9,20 		"/>
		<polygon class="st0" points="14.8,17.6 14.8,13.3 11.1,15.5 		"/>
		<polygon class="st0" points="15.1,13.1 18.9,15.3 18.9,11 		"/>
		<polygon class="st0" points="6.6,18 2.9,20.2 6.6,22.4 		"/>
		<polygon class="st0" points="23.2,18 23.2,22.4 26.9,20.2 		"/>
		<polygon class="st0" points="2.8,15.7 2.8,20 6.5,17.8 		"/>
		<polygon class="st0" points="10.6,20.2 6.9,18 6.9,22.4 		"/>
		<polygon class="st0" points="6.6,12.9 6.6,8.6 2.9,10.8 		"/>
		<polygon class="st0" points="6.9,12.9 10.6,10.8 6.9,8.6 		"/>
		<polygon class="st0" points="2.8,15.3 6.5,13.1 2.8,11 		"/>
		<polygon class="st0" points="22.9,18 19.2,20.2 22.9,22.4 		"/>
		<polygon class="st0" points="27,15.7 23.3,17.8 27,20 		"/>
		<polygon class="st0" points="23.2,12.9 26.9,10.8 23.2,8.6 		"/>
	</g>
	<g>
		<path class="st0" d="M32.3,11h0.9l2.9,8l0,0l2.9-8h0.9l-3.3,8.9h-1L32.3,11z"/>
		<path class="st0" d="M45.3,19.9h-0.7v-1.2l0,0c-0.4,0.9-1.3,1.4-2.2,1.4c-1.6,0-2.3-1-2.3-2.5v-4.2h0.8v4.2c0,1.2,0.5,1.8,1.7,1.8
			c1.4,0,1.9-1.3,1.9-2.6v-3.4h0.8V19.9z"/>
		<path class="st0" d="M46.9,11h0.9v8.2h5v0.7h-5.9V11z"/>
		<path class="st0" d="M53.5,11h0.8v1.3h-0.8V11z M53.5,13.5h0.8V20h-0.8V13.5z"/>
		<path class="st0" d="M55.1,13.5H56l2,5.7l0,0l2-5.7h0.8L58.4,20h-0.8L55.1,13.5z"/>
		<path class="st0" d="M65.2,11h4c1.6,0,2.7,0.9,2.7,2.6s-1.1,2.6-2.7,2.6h-3.1V20h-0.9V11z M66.1,15.4H69c1.2,0,2-0.6,2-1.8
			c0-1.2-0.8-1.8-2-1.8h-2.9V15.4z"/>
		<path class="st0" d="M73,11h0.8v8.9H73V11z"/>
		<path class="st0" d="M75.2,15.4c0.1-1.5,1.1-2.2,2.6-2.2c1.1,0,2.4,0.4,2.4,2.1v3.4c0,0.3,0.2,0.5,0.5,0.5c0.1,0,0.2,0,0.2-0.1
			v0.7c-0.2,0-0.3,0.1-0.5,0.1c-0.8,0-0.9-0.5-0.9-1.1l0,0c-0.6,0.8-1.1,1.3-2.4,1.3c-1.2,0-2.2-0.6-2.2-1.9c0-1.8,1.8-1.9,3.5-2.1
			c0.7-0.1,1-0.2,1-0.9c0-1.1-0.8-1.3-1.7-1.3c-1,0-1.7,0.5-1.7,1.5H75.2z M79.4,16.4L79.4,16.4c-0.1,0.2-0.5,0.3-0.7,0.3
			c-1.3,0.2-3,0.2-3,1.5c0,0.8,0.7,1.3,1.4,1.3c1.2,0,2.3-0.8,2.3-2C79.4,17.5,79.4,16.4,79.4,16.4z"/>
		<path class="st0" d="M81,13.5h0.8L84,19l2-5.5h0.8L84,20.9c-0.4,1.1-0.7,1.4-1.7,1.4c-0.3,0-0.5,0-0.6-0.1v-0.7
			c0.2,0,0.4,0.1,0.5,0.1c0.7,0,0.9-0.4,1.1-1l0.3-0.7L81,13.5z"/>
		<path class="st0" d="M88,16.9c0,1.2,0.6,2.5,2.1,2.5c1.2,0,1.8-0.7,2-1.7H93c-0.3,1.5-1.2,2.3-2.8,2.3c-2.1,0-2.9-1.6-2.9-3.4
			c0-1.7,0.9-3.4,2.9-3.4c2.1,0,2.9,1.8,2.8,3.6h-5V16.9z M92.2,16.2c0-1.2-0.8-2.3-2.1-2.3c-1.3,0-2,1.1-2.1,2.3H92.2z"/>
		<path class="st0" d="M94,13.5h0.7V15l0,0c0.4-1,1.3-1.7,2.4-1.6v0.8c-1.4-0.1-2.4,1-2.4,2.3v3.4H94V13.5z"/>
	</g>
	<g>
		<rect x="29.8" y="8.6" class="st0" width="0.2" height="13.7"/>
	</g>
</g>
</svg>
